{
  "project_info": {
    "project_number": "700998206216",
    "project_id": "petyt-41cf4",
    "storage_bucket": "petyt-41cf4.appspot.com"
  },
  "client": [
    {
      "client_info": {
        "mobilesdk_app_id": "1:700998206216:android:ee6a5b1dfe86c4d47722bd",
        "android_client_info": {
          "package_name": "com.example.flutter_pets"
        }
      },
      "oauth_client": [
        {
          "client_id": "700998206216-jlcve7r6ot7vbo6gjtlfpefb2kcp36br.apps.googleusercontent.com",
          "client_type": 3
        }
      ],
      "api_key": [
        {
          "current_key": "AIzaSyBN76n0bUKvRWZ6j1XFw6AWVwnS4NmtvWY"
        }
      ],
      "services": {
        "appinvite_service": {
          "other_platform_oauth_client": [
            {
              "client_id": "700998206216-jlcve7r6ot7vbo6gjtlfpefb2kcp36br.apps.googleusercontent.com",
              "client_type": 3
            },
            {
              "client_id": "700998206216-0i2clseg3hjd8g3tomlor8cl6i60iam9.apps.googleusercontent.com",
              "client_type": 2,
              "ios_info": {
                "bundle_id": "com.example.flutterPets"
              }
            }
          ]
        }
      }
    },
    {
      "client_info": {
        "mobilesdk_app_id": "1:700998206216:android:5d79f81936c55f027722bd",
        "android_client_info": {
          "package_name": "com.petyt"
        }
      },
      "oauth_client": [
        {
          "client_id": "700998206216-jlcve7r6ot7vbo6gjtlfpefb2kcp36br.apps.googleusercontent.com",
          "client_type": 3
        }
      ],
      "api_key": [
        {
          "current_key": "AIzaSyBN76n0bUKvRWZ6j1XFw6AWVwnS4NmtvWY"
        }
      ],
      "services": {
        "appinvite_service": {
          "other_platform_oauth_client": [
            {
              "client_id": "700998206216-jlcve7r6ot7vbo6gjtlfpefb2kcp36br.apps.googleusercontent.com",
              "client_type": 3
            },
            {
              "client_id": "700998206216-0i2clseg3hjd8g3tomlor8cl6i60iam9.apps.googleusercontent.com",
              "client_type": 2,
              "ios_info": {
                "bundle_id": "com.example.flutterPets"
              }
            }
          ]
        }
      }
    }
  ],
  "configuration_version": "1"
}